{
  "project_info": {
    "project_number": "14752485561",
    "firebase_url": "https://digitrack-a0bf5.firebaseio.com",
    "project_id": "digitrack-a0bf5",
    "storage_bucket": "digitrack-a0bf5.appspot.com"
  },
  "client": [
    {
      "client_info": {
        "mobilesdk_app_id": "1:14752485561:android:e61c580968ea8f05",
        "android_client_info": {
          "package_name": "com.Rayone.ionic"
        }
      },
      "oauth_client": [
        {
          "client_id": "14752485561-4vguqqrrv9htbr93hkgo9aqfecbd55me.apps.googleusercontent.com",
          "client_type": 3
        }
      ],
      "api_key": [
        {
          "current_key": "AIzaSyBWNMYqRrYRDU1376jsRTQUksVS0PIIckE"
        }
      ],
      "services": {
        "analytics_service": {
          "status": 1
        },
        "appinvite_service": {
          "status": 1,
          "other_platform_oauth_client": []
        },
        "ads_service": {
          "status": 2
        }
      }
    },
    {
      "client_info": {
        "mobilesdk_app_id": "1:14752485561:android:6a9dffd1352a7422",
        "android_client_info": {
          "package_name": "digicontTrack.ionic.starter"
        }
      },
      "oauth_client": [
        {
          "client_id": "14752485561-4vguqqrrv9htbr93hkgo9aqfecbd55me.apps.googleusercontent.com",
          "client_type": 3
        }
      ],
      "api_key": [
        {
          "current_key": "AIzaSyBWNMYqRrYRDU1376jsRTQUksVS0PIIckE"
        }
      ],
      "services": {
        "analytics_service": {
          "status": 1
        },
        "appinvite_service": {
          "status": 1,
          "other_platform_oauth_client": []
        },
        "ads_service": {
          "status": 2
        }
      }
    }
  ],
  "configuration_version": "1"
}