-- Merging decision tree log ---
provider#org.apache.cordova.camera.FileProvider
INJECTED from /Volumes/Untitled/client-projects/anjali_proj/Digicon_Projects/track-digi/platforms/android/app/src/main/AndroidManifest.xml:12:9-14:20
	android:grantUriPermissions
		ADDED from /Volumes/Untitled/client-projects/anjali_proj/Digicon_Projects/track-digi/platforms/android/app/src/main/AndroidManifest.xml:12:92-126
	android:authorities
		INJECTED from /Volumes/Untitled/client-projects/anjali_proj/Digicon_Projects/track-digi/platforms/android/app/src/main/AndroidManifest.xml
		ADDED from /Volumes/Untitled/client-projects/anjali_proj/Digicon_Projects/track-digi/platforms/android/app/src/main/AndroidManifest.xml:12:19-66
	android:exported
		ADDED from /Volumes/Untitled/client-projects/anjali_proj/Digicon_Projects/track-digi/platforms/android/app/src/main/AndroidManifest.xml:12:67-91
	android:name
		ADDED from /Volumes/Untitled/client-projects/anjali_proj/Digicon_Projects/track-digi/platforms/android/app/src/main/AndroidManifest.xml:12:127-180
provider#nl.xservices.plugins.FileProvider
INJECTED from /Volumes/Untitled/client-projects/anjali_proj/Digicon_Projects/track-digi/platforms/android/app/src/main/AndroidManifest.xml:22:9-24:20
	android:grantUriPermissions
		ADDED from /Volumes/Untitled/client-projects/anjali_proj/Digicon_Projects/track-digi/platforms/android/app/src/main/AndroidManifest.xml:22:100-134
	android:authorities
		INJECTED from /Volumes/Untitled/client-projects/anjali_proj/Digicon_Projects/track-digi/platforms/android/app/src/main/AndroidManifest.xml
		ADDED from /Volumes/Untitled/client-projects/anjali_proj/Digicon_Projects/track-digi/platforms/android/app/src/main/AndroidManifest.xml:22:19-74
	android:exported
		ADDED from /Volumes/Untitled/client-projects/anjali_proj/Digicon_Projects/track-digi/platforms/android/app/src/main/AndroidManifest.xml:22:75-99
	android:name
		ADDED from /Volumes/Untitled/client-projects/anjali_proj/Digicon_Projects/track-digi/platforms/android/app/src/main/AndroidManifest.xml:22:135-183
activity#com.adobe.phonegap.push.PushHandlerActivity
INJECTED from /Volumes/Untitled/client-projects/anjali_proj/Digicon_Projects/track-digi/platforms/android/app/src/main/AndroidManifest.xml:25:9-173
	android:exported
		ADDED from /Volumes/Untitled/client-projects/anjali_proj/Digicon_Projects/track-digi/platforms/android/app/src/main/AndroidManifest.xml:25:19-42
	android:permission
		INJECTED from /Volumes/Untitled/client-projects/anjali_proj/Digicon_Projects/track-digi/platforms/android/app/src/main/AndroidManifest.xml
		ADDED from /Volumes/Untitled/client-projects/anjali_proj/Digicon_Projects/track-digi/platforms/android/app/src/main/AndroidManifest.xml:25:102-170
	android:name
		ADDED from /Volumes/Untitled/client-projects/anjali_proj/Digicon_Projects/track-digi/platforms/android/app/src/main/AndroidManifest.xml:25:43-101
manifest
ADDED from /Volumes/Untitled/client-projects/anjali_proj/Digicon_Projects/track-digi/platforms/android/app/src/main/AndroidManifest.xml:2:1-54:12
INJECTED from /Volumes/Untitled/client-projects/anjali_proj/Digicon_Projects/track-digi/platforms/android/app/src/main/AndroidManifest.xml:2:1-54:12
INJECTED from /Volumes/Untitled/client-projects/anjali_proj/Digicon_Projects/track-digi/platforms/android/app/src/main/AndroidManifest.xml:2:1-54:12
INJECTED from /Volumes/Untitled/client-projects/anjali_proj/Digicon_Projects/track-digi/platforms/android/app/src/main/AndroidManifest.xml:2:1-54:12
MERGED from [:tbxml-android:] /Users/admin/.gradle/caches/transforms-1/files-1.1/tbxml-android.aar/bc36313580a8baec19fecf97bde1cc2a/AndroidManifest.xml:2:1-11:12
MERGED from [com.android.support:multidex:1.0.2] /Users/admin/.gradle/caches/transforms-1/files-1.1/multidex-1.0.2.aar/0785de8d8af5310ec3abf480c7b32923/AndroidManifest.xml:17:1-22:12
MERGED from [:CordovaLib] /Volumes/Untitled/client-projects/anjali_proj/Digicon_Projects/track-digi/platforms/android/CordovaLib/build/intermediates/library_manifest/debug/AndroidManifest.xml:20:1-27:12
MERGED from [com.android.support:support-v13:27.1.1] /Users/admin/.gradle/caches/transforms-1/files-1.1/support-v13-27.1.1.aar/05ef1beff8d57f42732118f7aa3dd06c/AndroidManifest.xml:17:1-22:12
MERGED from [com.google.android.gms:play-services-maps:15.0.1] /Users/admin/.gradle/caches/transforms-1/files-1.1/play-services-maps-15.0.1.aar/5353ca270e448c968e1147f6cafb93ed/AndroidManifest.xml:17:1-32:12
MERGED from [com.google.android.gms:play-services-location:15.0.1] /Users/admin/.gradle/caches/transforms-1/files-1.1/play-services-location-15.0.1.aar/fd6eaba95b35b10f871ee2a8ff67d13b/AndroidManifest.xml:2:1-9:12
MERGED from [com.google.firebase:firebase-messaging:15.0.0] /Users/admin/.gradle/caches/transforms-1/files-1.1/firebase-messaging-15.0.0.aar/ca6327da60041304c05f0244e981f58a/AndroidManifest.xml:17:1-37:12
MERGED from [com.google.android.gms:play-services-base:15.0.1] /Users/admin/.gradle/caches/transforms-1/files-1.1/play-services-base-15.0.1.aar/15a7e0364b4f5da014b87df767a7f2c6/AndroidManifest.xml:17:1-29:12
MERGED from [com.google.android.gms:play-services-places-placereport:15.0.1] /Users/admin/.gradle/caches/transforms-1/files-1.1/play-services-places-placereport-15.0.1.aar/bdc74aad912315a89064408a4cee9d79/AndroidManifest.xml:17:1-24:12
MERGED from [com.google.firebase:firebase-analytics-impl:15.0.0] /Users/admin/.gradle/caches/transforms-1/files-1.1/firebase-analytics-impl-15.0.0.aar/91fac7b33641e8e8b1750c1fbd5da58e/AndroidManifest.xml:17:1-41:12
MERGED from [com.google.firebase:firebase-iid:15.0.0] /Users/admin/.gradle/caches/transforms-1/files-1.1/firebase-iid-15.0.0.aar/4162cde51bfe546e7d99333d6c9697e0/AndroidManifest.xml:17:1-59:12
MERGED from [com.google.firebase:firebase-common:15.0.1] /Users/admin/.gradle/caches/transforms-1/files-1.1/firebase-common-15.0.1.aar/cb7231da4b7f8964d6bdb9ce16f17f07/AndroidManifest.xml:2:1-15:12
MERGED from [com.google.android.gms:play-services-tasks:15.0.1] /Users/admin/.gradle/caches/transforms-1/files-1.1/play-services-tasks-15.0.1.aar/ebe620f09d2b7b41cae3413ec0961eb2/AndroidManifest.xml:2:1-9:12
MERGED from [com.google.android.gms:play-services-ads-identifier:15.0.1] /Users/admin/.gradle/caches/transforms-1/files-1.1/play-services-ads-identifier-15.0.1.aar/8aac0b2fa55498454537939fa771fbd5/AndroidManifest.xml:17:1-24:12
MERGED from [com.google.android.gms:play-services-stats:15.0.1] /Users/admin/.gradle/caches/transforms-1/files-1.1/play-services-stats-15.0.1.aar/c3d0581dd96bbfe9e3880a55a3377a50/AndroidManifest.xml:2:1-9:12
MERGED from [com.google.android.gms:play-services-basement:15.0.1] /Users/admin/.gradle/caches/transforms-1/files-1.1/play-services-basement-15.0.1.aar/58fd7c363cf8bc1fd7afaafc71cf08a6/AndroidManifest.xml:17:1-28:12
MERGED from [com.android.support:support-v4:27.1.1] /Users/admin/.gradle/caches/transforms-1/files-1.1/support-v4-27.1.1.aar/2c6b0634b6a7a1004c16ea538c7023e3/AndroidManifest.xml:17:1-22:12
MERGED from [com.android.support:support-fragment:27.1.1] /Users/admin/.gradle/caches/transforms-1/files-1.1/support-fragment-27.1.1.aar/42767852a06bd7f05605e143f0d13aa8/AndroidManifest.xml:17:1-22:12
MERGED from [com.android.support:support-core-ui:27.1.1] /Users/admin/.gradle/caches/transforms-1/files-1.1/support-core-ui-27.1.1.aar/99aacdea6457500e9c9c16d1c68589ed/AndroidManifest.xml:17:1-22:12
MERGED from [com.android.support:support-core-utils:27.1.1] /Users/admin/.gradle/caches/transforms-1/files-1.1/support-core-utils-27.1.1.aar/d0e0869a954ee7a8855cbffa67b6222d/AndroidManifest.xml:17:1-22:12
MERGED from [me.leolin:ShortcutBadger:1.1.17] /Users/admin/.gradle/caches/transforms-1/files-1.1/ShortcutBadger-1.1.17.aar/d5a37f23a68a37daa17de5c12a35abdd/AndroidManifest.xml:2:1-52:12
MERGED from [com.android.support:support-media-compat:27.1.1] /Users/admin/.gradle/caches/transforms-1/files-1.1/support-media-compat-27.1.1.aar/accd35bb8a587e8519d45309566ce32b/AndroidManifest.xml:17:1-22:12
MERGED from [com.android.support:support-compat:27.1.1] /Users/admin/.gradle/caches/transforms-1/files-1.1/support-compat-27.1.1.aar/dc1a0dd5dbaa6d819797ab99f6170e45/AndroidManifest.xml:17:1-22:12
MERGED from [com.google.android.gms:play-services-measurement-base:15.0.0] /Users/admin/.gradle/caches/transforms-1/files-1.1/play-services-measurement-base-15.0.0.aar/df4f01f7ca3b8be5da6b460dcd2e7f1a/AndroidManifest.xml:17:1-24:12
MERGED from [android.arch.lifecycle:runtime:1.1.0] /Users/admin/.gradle/caches/transforms-1/files-1.1/runtime-1.1.0.aar/36c72dc68d40da7c074d89b814c271c5/AndroidManifest.xml:17:1-22:12
MERGED from [android.arch.lifecycle:livedata-core:1.1.0] /Users/admin/.gradle/caches/transforms-1/files-1.1/livedata-core-1.1.0.aar/fddd4be3e10555aa191106530ad8694e/AndroidManifest.xml:17:1-22:12
MERGED from [android.arch.core:runtime:1.1.0] /Users/admin/.gradle/caches/transforms-1/files-1.1/runtime-1.1.0.aar/3a7574a93838665e58e70ecbee5e4c52/AndroidManifest.xml:17:1-22:12
MERGED from [android.arch.lifecycle:viewmodel:1.1.0] /Users/admin/.gradle/caches/transforms-1/files-1.1/viewmodel-1.1.0.aar/c2aa737aba77b41fc2b037718378d02f/AndroidManifest.xml:17:1-22:12
INJECTED from /Volumes/Untitled/client-projects/anjali_proj/Digicon_Projects/track-digi/platforms/android/app/src/main/AndroidManifest.xml:2:1-54:12
INJECTED from /Volumes/Untitled/client-projects/anjali_proj/Digicon_Projects/track-digi/platforms/android/app/src/main/AndroidManifest.xml:2:1-54:12
INJECTED from /Volumes/Untitled/client-projects/anjali_proj/Digicon_Projects/track-digi/platforms/android/app/src/main/AndroidManifest.xml:2:1-54:12
	package
		ADDED from /Volumes/Untitled/client-projects/anjali_proj/Digicon_Projects/track-digi/platforms/android/app/src/main/AndroidManifest.xml:2:100-137
		INJECTED from /Volumes/Untitled/client-projects/anjali_proj/Digicon_Projects/track-digi/platforms/android/app/src/main/AndroidManifest.xml
		INJECTED from /Volumes/Untitled/client-projects/anjali_proj/Digicon_Projects/track-digi/platforms/android/app/src/main/AndroidManifest.xml
	android:versionName
		ADDED from /Volumes/Untitled/client-projects/anjali_proj/Digicon_Projects/track-digi/platforms/android/app/src/main/AndroidManifest.xml:2:74-99
		INJECTED from /Volumes/Untitled/client-projects/anjali_proj/Digicon_Projects/track-digi/platforms/android/app/src/main/AndroidManifest.xml
		INJECTED from /Volumes/Untitled/client-projects/anjali_proj/Digicon_Projects/track-digi/platforms/android/app/src/main/AndroidManifest.xml
	android:hardwareAccelerated
		ADDED from /Volumes/Untitled/client-projects/anjali_proj/Digicon_Projects/track-digi/platforms/android/app/src/main/AndroidManifest.xml:2:11-45
	xmlns:android
		ADDED from /Volumes/Untitled/client-projects/anjali_proj/Digicon_Projects/track-digi/platforms/android/app/src/main/AndroidManifest.xml:2:138-196
	android:versionCode
		ADDED from /Volumes/Untitled/client-projects/anjali_proj/Digicon_Projects/track-digi/platforms/android/app/src/main/AndroidManifest.xml:2:46-73
		INJECTED from /Volumes/Untitled/client-projects/anjali_proj/Digicon_Projects/track-digi/platforms/android/app/src/main/AndroidManifest.xml
		INJECTED from /Volumes/Untitled/client-projects/anjali_proj/Digicon_Projects/track-digi/platforms/android/app/src/main/AndroidManifest.xml
supports-screens
ADDED from /Volumes/Untitled/client-projects/anjali_proj/Digicon_Projects/track-digi/platforms/android/app/src/main/AndroidManifest.xml:3:5-191
	android:largeScreens
		ADDED from /Volumes/Untitled/client-projects/anjali_proj/Digicon_Projects/track-digi/platforms/android/app/src/main/AndroidManifest.xml:3:49-76
	android:smallScreens
		ADDED from /Volumes/Untitled/client-projects/anjali_proj/Digicon_Projects/track-digi/platforms/android/app/src/main/AndroidManifest.xml:3:132-159
	android:normalScreens
		ADDED from /Volumes/Untitled/client-projects/anjali_proj/Digicon_Projects/track-digi/platforms/android/app/src/main/AndroidManifest.xml:3:77-105
	android:xlargeScreens
		ADDED from /Volumes/Untitled/client-projects/anjali_proj/Digicon_Projects/track-digi/platforms/android/app/src/main/AndroidManifest.xml:3:160-188
	android:resizeable
		ADDED from /Volumes/Untitled/client-projects/anjali_proj/Digicon_Projects/track-digi/platforms/android/app/src/main/AndroidManifest.xml:3:106-131
	android:anyDensity
		ADDED from /Volumes/Untitled/client-projects/anjali_proj/Digicon_Projects/track-digi/platforms/android/app/src/main/AndroidManifest.xml:3:23-48
uses-permission#android.permission.INTERNET
ADDED from /Volumes/Untitled/client-projects/anjali_proj/Digicon_Projects/track-digi/platforms/android/app/src/main/AndroidManifest.xml:4:5-67
MERGED from [com.google.android.gms:play-services-maps:15.0.1] /Users/admin/.gradle/caches/transforms-1/files-1.1/play-services-maps-15.0.1.aar/5353ca270e448c968e1147f6cafb93ed/AndroidManifest.xml:24:5-67
MERGED from [com.google.android.gms:play-services-maps:15.0.1] /Users/admin/.gradle/caches/transforms-1/files-1.1/play-services-maps-15.0.1.aar/5353ca270e448c968e1147f6cafb93ed/AndroidManifest.xml:24:5-67
MERGED from [com.google.firebase:firebase-analytics-impl:15.0.0] /Users/admin/.gradle/caches/transforms-1/files-1.1/firebase-analytics-impl-15.0.0.aar/91fac7b33641e8e8b1750c1fbd5da58e/AndroidManifest.xml:23:5-67
MERGED from [com.google.firebase:firebase-analytics-impl:15.0.0] /Users/admin/.gradle/caches/transforms-1/files-1.1/firebase-analytics-impl-15.0.0.aar/91fac7b33641e8e8b1750c1fbd5da58e/AndroidManifest.xml:23:5-67
MERGED from [com.google.firebase:firebase-iid:15.0.0] /Users/admin/.gradle/caches/transforms-1/files-1.1/firebase-iid-15.0.0.aar/4162cde51bfe546e7d99333d6c9697e0/AndroidManifest.xml:23:5-67
MERGED from [com.google.firebase:firebase-iid:15.0.0] /Users/admin/.gradle/caches/transforms-1/files-1.1/firebase-iid-15.0.0.aar/4162cde51bfe546e7d99333d6c9697e0/AndroidManifest.xml:23:5-67
	android:name
		ADDED from /Volumes/Untitled/client-projects/anjali_proj/Digicon_Projects/track-digi/platforms/android/app/src/main/AndroidManifest.xml:4:22-64
application
ADDED from /Volumes/Untitled/client-projects/anjali_proj/Digicon_Projects/track-digi/platforms/android/app/src/main/AndroidManifest.xml:5:5-38:19
MERGED from [com.google.android.gms:play-services-maps:15.0.1] /Users/admin/.gradle/caches/transforms-1/files-1.1/play-services-maps-15.0.1.aar/5353ca270e448c968e1147f6cafb93ed/AndroidManifest.xml:30:5-20
MERGED from [com.google.android.gms:play-services-maps:15.0.1] /Users/admin/.gradle/caches/transforms-1/files-1.1/play-services-maps-15.0.1.aar/5353ca270e448c968e1147f6cafb93ed/AndroidManifest.xml:30:5-20
MERGED from [com.google.android.gms:play-services-location:15.0.1] /Users/admin/.gradle/caches/transforms-1/files-1.1/play-services-location-15.0.1.aar/fd6eaba95b35b10f871ee2a8ff67d13b/AndroidManifest.xml:7:5-20
MERGED from [com.google.android.gms:play-services-location:15.0.1] /Users/admin/.gradle/caches/transforms-1/files-1.1/play-services-location-15.0.1.aar/fd6eaba95b35b10f871ee2a8ff67d13b/AndroidManifest.xml:7:5-20
MERGED from [com.google.firebase:firebase-messaging:15.0.0] /Users/admin/.gradle/caches/transforms-1/files-1.1/firebase-messaging-15.0.0.aar/ca6327da60041304c05f0244e981f58a/AndroidManifest.xml:22:5-35:19
MERGED from [com.google.firebase:firebase-messaging:15.0.0] /Users/admin/.gradle/caches/transforms-1/files-1.1/firebase-messaging-15.0.0.aar/ca6327da60041304c05f0244e981f58a/AndroidManifest.xml:22:5-35:19
MERGED from [com.google.android.gms:play-services-base:15.0.1] /Users/admin/.gradle/caches/transforms-1/files-1.1/play-services-base-15.0.1.aar/15a7e0364b4f5da014b87df767a7f2c6/AndroidManifest.xml:22:5-27:19
MERGED from [com.google.android.gms:play-services-base:15.0.1] /Users/admin/.gradle/caches/transforms-1/files-1.1/play-services-base-15.0.1.aar/15a7e0364b4f5da014b87df767a7f2c6/AndroidManifest.xml:22:5-27:19
MERGED from [com.google.android.gms:play-services-places-placereport:15.0.1] /Users/admin/.gradle/caches/transforms-1/files-1.1/play-services-places-placereport-15.0.1.aar/bdc74aad912315a89064408a4cee9d79/AndroidManifest.xml:22:5-20
MERGED from [com.google.android.gms:play-services-places-placereport:15.0.1] /Users/admin/.gradle/caches/transforms-1/files-1.1/play-services-places-placereport-15.0.1.aar/bdc74aad912315a89064408a4cee9d79/AndroidManifest.xml:22:5-20
MERGED from [com.google.firebase:firebase-analytics-impl:15.0.0] /Users/admin/.gradle/caches/transforms-1/files-1.1/firebase-analytics-impl-15.0.0.aar/91fac7b33641e8e8b1750c1fbd5da58e/AndroidManifest.xml:28:5-39:19
MERGED from [com.google.firebase:firebase-analytics-impl:15.0.0] /Users/admin/.gradle/caches/transforms-1/files-1.1/firebase-analytics-impl-15.0.0.aar/91fac7b33641e8e8b1750c1fbd5da58e/AndroidManifest.xml:28:5-39:19
MERGED from [com.google.firebase:firebase-iid:15.0.0] /Users/admin/.gradle/caches/transforms-1/files-1.1/firebase-iid-15.0.0.aar/4162cde51bfe546e7d99333d6c9697e0/AndroidManifest.xml:34:5-57:19
MERGED from [com.google.firebase:firebase-iid:15.0.0] /Users/admin/.gradle/caches/transforms-1/files-1.1/firebase-iid-15.0.0.aar/4162cde51bfe546e7d99333d6c9697e0/AndroidManifest.xml:34:5-57:19
MERGED from [com.google.firebase:firebase-common:15.0.1] /Users/admin/.gradle/caches/transforms-1/files-1.1/firebase-common-15.0.1.aar/cb7231da4b7f8964d6bdb9ce16f17f07/AndroidManifest.xml:7:5-13:19
MERGED from [com.google.firebase:firebase-common:15.0.1] /Users/admin/.gradle/caches/transforms-1/files-1.1/firebase-common-15.0.1.aar/cb7231da4b7f8964d6bdb9ce16f17f07/AndroidManifest.xml:7:5-13:19
MERGED from [com.google.android.gms:play-services-tasks:15.0.1] /Users/admin/.gradle/caches/transforms-1/files-1.1/play-services-tasks-15.0.1.aar/ebe620f09d2b7b41cae3413ec0961eb2/AndroidManifest.xml:7:5-20
MERGED from [com.google.android.gms:play-services-tasks:15.0.1] /Users/admin/.gradle/caches/transforms-1/files-1.1/play-services-tasks-15.0.1.aar/ebe620f09d2b7b41cae3413ec0961eb2/AndroidManifest.xml:7:5-20
MERGED from [com.google.android.gms:play-services-ads-identifier:15.0.1] /Users/admin/.gradle/caches/transforms-1/files-1.1/play-services-ads-identifier-15.0.1.aar/8aac0b2fa55498454537939fa771fbd5/AndroidManifest.xml:22:5-20
MERGED from [com.google.android.gms:play-services-ads-identifier:15.0.1] /Users/admin/.gradle/caches/transforms-1/files-1.1/play-services-ads-identifier-15.0.1.aar/8aac0b2fa55498454537939fa771fbd5/AndroidManifest.xml:22:5-20
MERGED from [com.google.android.gms:play-services-stats:15.0.1] /Users/admin/.gradle/caches/transforms-1/files-1.1/play-services-stats-15.0.1.aar/c3d0581dd96bbfe9e3880a55a3377a50/AndroidManifest.xml:7:5-20
MERGED from [com.google.android.gms:play-services-stats:15.0.1] /Users/admin/.gradle/caches/transforms-1/files-1.1/play-services-stats-15.0.1.aar/c3d0581dd96bbfe9e3880a55a3377a50/AndroidManifest.xml:7:5-20
MERGED from [com.google.android.gms:play-services-basement:15.0.1] /Users/admin/.gradle/caches/transforms-1/files-1.1/play-services-basement-15.0.1.aar/58fd7c363cf8bc1fd7afaafc71cf08a6/AndroidManifest.xml:22:5-26:19
MERGED from [com.google.android.gms:play-services-basement:15.0.1] /Users/admin/.gradle/caches/transforms-1/files-1.1/play-services-basement-15.0.1.aar/58fd7c363cf8bc1fd7afaafc71cf08a6/AndroidManifest.xml:22:5-26:19
MERGED from [com.google.android.gms:play-services-measurement-base:15.0.0] /Users/admin/.gradle/caches/transforms-1/files-1.1/play-services-measurement-base-15.0.0.aar/df4f01f7ca3b8be5da6b460dcd2e7f1a/AndroidManifest.xml:22:5-20
MERGED from [com.google.android.gms:play-services-measurement-base:15.0.0] /Users/admin/.gradle/caches/transforms-1/files-1.1/play-services-measurement-base-15.0.0.aar/df4f01f7ca3b8be5da6b460dcd2e7f1a/AndroidManifest.xml:22:5-20
	android:supportsRtl
		ADDED from /Volumes/Untitled/client-projects/anjali_proj/Digicon_Projects/track-digi/platforms/android/app/src/main/AndroidManifest.xml:5:121-147
	android:label
		ADDED from /Volumes/Untitled/client-projects/anjali_proj/Digicon_Projects/track-digi/platforms/android/app/src/main/AndroidManifest.xml:5:88-120
	android:hardwareAccelerated
		ADDED from /Volumes/Untitled/client-projects/anjali_proj/Digicon_Projects/track-digi/platforms/android/app/src/main/AndroidManifest.xml:5:18-52
	android:icon
		ADDED from /Volumes/Untitled/client-projects/anjali_proj/Digicon_Projects/track-digi/platforms/android/app/src/main/AndroidManifest.xml:5:53-87
activity#digicontTrack.ionic.starter.MainActivity
ADDED from /Volumes/Untitled/client-projects/anjali_proj/Digicon_Projects/track-digi/platforms/android/app/src/main/AndroidManifest.xml:6:9-11:20
	android:screenOrientation
		ADDED from /Volumes/Untitled/client-projects/anjali_proj/Digicon_Projects/track-digi/platforms/android/app/src/main/AndroidManifest.xml:6:194-230
	android:label
		ADDED from /Volumes/Untitled/client-projects/anjali_proj/Digicon_Projects/track-digi/platforms/android/app/src/main/AndroidManifest.xml:6:97-134
	android:launchMode
		ADDED from /Volumes/Untitled/client-projects/anjali_proj/Digicon_Projects/track-digi/platforms/android/app/src/main/AndroidManifest.xml:6:135-165
	android:windowSoftInputMode
		ADDED from /Volumes/Untitled/client-projects/anjali_proj/Digicon_Projects/track-digi/platforms/android/app/src/main/AndroidManifest.xml:6:294-336
	android:configChanges
		ADDED from /Volumes/Untitled/client-projects/anjali_proj/Digicon_Projects/track-digi/platforms/android/app/src/main/AndroidManifest.xml:6:19-96
	android:theme
		ADDED from /Volumes/Untitled/client-projects/anjali_proj/Digicon_Projects/track-digi/platforms/android/app/src/main/AndroidManifest.xml:6:231-293
	android:name
		ADDED from /Volumes/Untitled/client-projects/anjali_proj/Digicon_Projects/track-digi/platforms/android/app/src/main/AndroidManifest.xml:6:166-193
intent-filter#action:name:android.intent.action.MAIN+category:name:android.intent.category.LAUNCHER
ADDED from /Volumes/Untitled/client-projects/anjali_proj/Digicon_Projects/track-digi/platforms/android/app/src/main/AndroidManifest.xml:7:13-10:29
	android:label
		ADDED from /Volumes/Untitled/client-projects/anjali_proj/Digicon_Projects/track-digi/platforms/android/app/src/main/AndroidManifest.xml:7:28-65
action#android.intent.action.MAIN
ADDED from /Volumes/Untitled/client-projects/anjali_proj/Digicon_Projects/track-digi/platforms/android/app/src/main/AndroidManifest.xml:8:17-69
	android:name
		ADDED from /Volumes/Untitled/client-projects/anjali_proj/Digicon_Projects/track-digi/platforms/android/app/src/main/AndroidManifest.xml:8:25-66
category#android.intent.category.LAUNCHER
ADDED from /Volumes/Untitled/client-projects/anjali_proj/Digicon_Projects/track-digi/platforms/android/app/src/main/AndroidManifest.xml:9:17-77
	android:name
		ADDED from /Volumes/Untitled/client-projects/anjali_proj/Digicon_Projects/track-digi/platforms/android/app/src/main/AndroidManifest.xml:9:27-74
meta-data#com.google.android.geo.API_KEY
ADDED from /Volumes/Untitled/client-projects/anjali_proj/Digicon_Projects/track-digi/platforms/android/app/src/main/AndroidManifest.xml:15:9-124
	android:value
		ADDED from /Volumes/Untitled/client-projects/anjali_proj/Digicon_Projects/track-digi/platforms/android/app/src/main/AndroidManifest.xml:15:66-121
	android:name
		ADDED from /Volumes/Untitled/client-projects/anjali_proj/Digicon_Projects/track-digi/platforms/android/app/src/main/AndroidManifest.xml:15:20-65
meta-data#com.google.android.gms.version
ADDED from /Volumes/Untitled/client-projects/anjali_proj/Digicon_Projects/track-digi/platforms/android/app/src/main/AndroidManifest.xml:16:9-122
MERGED from [com.google.android.gms:play-services-basement:15.0.1] /Users/admin/.gradle/caches/transforms-1/files-1.1/play-services-basement-15.0.1.aar/58fd7c363cf8bc1fd7afaafc71cf08a6/AndroidManifest.xml:23:9-25:69
MERGED from [com.google.android.gms:play-services-basement:15.0.1] /Users/admin/.gradle/caches/transforms-1/files-1.1/play-services-basement-15.0.1.aar/58fd7c363cf8bc1fd7afaafc71cf08a6/AndroidManifest.xml:23:9-25:69
	android:value
		ADDED from /Volumes/Untitled/client-projects/anjali_proj/Digicon_Projects/track-digi/platforms/android/app/src/main/AndroidManifest.xml:16:66-119
	android:name
		ADDED from /Volumes/Untitled/client-projects/anjali_proj/Digicon_Projects/track-digi/platforms/android/app/src/main/AndroidManifest.xml:16:20-65
receiver#nl.xservices.plugins.ShareChooserPendingIntent
ADDED from /Volumes/Untitled/client-projects/anjali_proj/Digicon_Projects/track-digi/platforms/android/app/src/main/AndroidManifest.xml:17:9-21:20
	android:enabled
		ADDED from /Volumes/Untitled/client-projects/anjali_proj/Digicon_Projects/track-digi/platforms/android/app/src/main/AndroidManifest.xml:17:19-41
	android:name
		ADDED from /Volumes/Untitled/client-projects/anjali_proj/Digicon_Projects/track-digi/platforms/android/app/src/main/AndroidManifest.xml:17:42-103
intent-filter#action:name:android.intent.action.SEND
ADDED from /Volumes/Untitled/client-projects/anjali_proj/Digicon_Projects/track-digi/platforms/android/app/src/main/AndroidManifest.xml:18:13-20:29
action#android.intent.action.SEND
ADDED from /Volumes/Untitled/client-projects/anjali_proj/Digicon_Projects/track-digi/platforms/android/app/src/main/AndroidManifest.xml:19:17-69
	android:name
		ADDED from /Volumes/Untitled/client-projects/anjali_proj/Digicon_Projects/track-digi/platforms/android/app/src/main/AndroidManifest.xml:19:25-66
receiver#com.adobe.phonegap.push.BackgroundActionButtonHandler
ADDED from /Volumes/Untitled/client-projects/anjali_proj/Digicon_Projects/track-digi/platforms/android/app/src/main/AndroidManifest.xml:26:9-90
	android:name
		ADDED from /Volumes/Untitled/client-projects/anjali_proj/Digicon_Projects/track-digi/platforms/android/app/src/main/AndroidManifest.xml:26:19-87
receiver#com.adobe.phonegap.push.PushDismissedHandler
ADDED from /Volumes/Untitled/client-projects/anjali_proj/Digicon_Projects/track-digi/platforms/android/app/src/main/AndroidManifest.xml:27:9-81
	android:name
		ADDED from /Volumes/Untitled/client-projects/anjali_proj/Digicon_Projects/track-digi/platforms/android/app/src/main/AndroidManifest.xml:27:19-78
service#com.adobe.phonegap.push.FCMService
ADDED from /Volumes/Untitled/client-projects/anjali_proj/Digicon_Projects/track-digi/platforms/android/app/src/main/AndroidManifest.xml:28:9-32:19
	android:name
		ADDED from /Volumes/Untitled/client-projects/anjali_proj/Digicon_Projects/track-digi/platforms/android/app/src/main/AndroidManifest.xml:28:18-67
intent-filter#action:name:com.google.firebase.MESSAGING_EVENT
ADDED from /Volumes/Untitled/client-projects/anjali_proj/Digicon_Projects/track-digi/platforms/android/app/src/main/AndroidManifest.xml:29:13-31:29
action#com.google.firebase.MESSAGING_EVENT
ADDED from /Volumes/Untitled/client-projects/anjali_proj/Digicon_Projects/track-digi/platforms/android/app/src/main/AndroidManifest.xml:30:17-78
	android:name
		ADDED from /Volumes/Untitled/client-projects/anjali_proj/Digicon_Projects/track-digi/platforms/android/app/src/main/AndroidManifest.xml:30:25-75
service#com.adobe.phonegap.push.PushInstanceIDListenerService
ADDED from /Volumes/Untitled/client-projects/anjali_proj/Digicon_Projects/track-digi/platforms/android/app/src/main/AndroidManifest.xml:33:9-37:19
	android:name
		ADDED from /Volumes/Untitled/client-projects/anjali_proj/Digicon_Projects/track-digi/platforms/android/app/src/main/AndroidManifest.xml:33:18-86
intent-filter#action:name:com.google.firebase.INSTANCE_ID_EVENT
ADDED from /Volumes/Untitled/client-projects/anjali_proj/Digicon_Projects/track-digi/platforms/android/app/src/main/AndroidManifest.xml:34:13-36:29
action#com.google.firebase.INSTANCE_ID_EVENT
ADDED from /Volumes/Untitled/client-projects/anjali_proj/Digicon_Projects/track-digi/platforms/android/app/src/main/AndroidManifest.xml:35:17-80
	android:name
		ADDED from /Volumes/Untitled/client-projects/anjali_proj/Digicon_Projects/track-digi/platforms/android/app/src/main/AndroidManifest.xml:35:25-77
uses-sdk
ADDED from /Volumes/Untitled/client-projects/anjali_proj/Digicon_Projects/track-digi/platforms/android/app/src/main/AndroidManifest.xml:39:5-47
INJECTED from /Volumes/Untitled/client-projects/anjali_proj/Digicon_Projects/track-digi/platforms/android/app/src/main/AndroidManifest.xml:39:5-47
MERGED from [:tbxml-android:] /Users/admin/.gradle/caches/transforms-1/files-1.1/tbxml-android.aar/bc36313580a8baec19fecf97bde1cc2a/AndroidManifest.xml:7:5-9:41
MERGED from [:tbxml-android:] /Users/admin/.gradle/caches/transforms-1/files-1.1/tbxml-android.aar/bc36313580a8baec19fecf97bde1cc2a/AndroidManifest.xml:7:5-9:41
MERGED from [com.android.support:multidex:1.0.2] /Users/admin/.gradle/caches/transforms-1/files-1.1/multidex-1.0.2.aar/0785de8d8af5310ec3abf480c7b32923/AndroidManifest.xml:20:5-43
MERGED from [com.android.support:multidex:1.0.2] /Users/admin/.gradle/caches/transforms-1/files-1.1/multidex-1.0.2.aar/0785de8d8af5310ec3abf480c7b32923/AndroidManifest.xml:20:5-43
MERGED from [:CordovaLib] /Volumes/Untitled/client-projects/anjali_proj/Digicon_Projects/track-digi/platforms/android/CordovaLib/build/intermediates/library_manifest/debug/AndroidManifest.xml:25:5-44
MERGED from [:CordovaLib] /Volumes/Untitled/client-projects/anjali_proj/Digicon_Projects/track-digi/platforms/android/CordovaLib/build/intermediates/library_manifest/debug/AndroidManifest.xml:25:5-44
MERGED from [com.android.support:support-v13:27.1.1] /Users/admin/.gradle/caches/transforms-1/files-1.1/support-v13-27.1.1.aar/05ef1beff8d57f42732118f7aa3dd06c/AndroidManifest.xml:20:5-44
MERGED from [com.android.support:support-v13:27.1.1] /Users/admin/.gradle/caches/transforms-1/files-1.1/support-v13-27.1.1.aar/05ef1beff8d57f42732118f7aa3dd06c/AndroidManifest.xml:20:5-44
MERGED from [com.google.android.gms:play-services-maps:15.0.1] /Users/admin/.gradle/caches/transforms-1/files-1.1/play-services-maps-15.0.1.aar/5353ca270e448c968e1147f6cafb93ed/AndroidManifest.xml:20:5-44
MERGED from [com.google.android.gms:play-services-maps:15.0.1] /Users/admin/.gradle/caches/transforms-1/files-1.1/play-services-maps-15.0.1.aar/5353ca270e448c968e1147f6cafb93ed/AndroidManifest.xml:20:5-44
MERGED from [com.google.android.gms:play-services-location:15.0.1] /Users/admin/.gradle/caches/transforms-1/files-1.1/play-services-location-15.0.1.aar/fd6eaba95b35b10f871ee2a8ff67d13b/AndroidManifest.xml:5:5-44
MERGED from [com.google.android.gms:play-services-location:15.0.1] /Users/admin/.gradle/caches/transforms-1/files-1.1/play-services-location-15.0.1.aar/fd6eaba95b35b10f871ee2a8ff67d13b/AndroidManifest.xml:5:5-44
MERGED from [com.google.firebase:firebase-messaging:15.0.0] /Users/admin/.gradle/caches/transforms-1/files-1.1/firebase-messaging-15.0.0.aar/ca6327da60041304c05f0244e981f58a/AndroidManifest.xml:20:5-44
MERGED from [com.google.firebase:firebase-messaging:15.0.0] /Users/admin/.gradle/caches/transforms-1/files-1.1/firebase-messaging-15.0.0.aar/ca6327da60041304c05f0244e981f58a/AndroidManifest.xml:20:5-44
MERGED from [com.google.android.gms:play-services-base:15.0.1] /Users/admin/.gradle/caches/transforms-1/files-1.1/play-services-base-15.0.1.aar/15a7e0364b4f5da014b87df767a7f2c6/AndroidManifest.xml:20:5-44
MERGED from [com.google.android.gms:play-services-base:15.0.1] /Users/admin/.gradle/caches/transforms-1/files-1.1/play-services-base-15.0.1.aar/15a7e0364b4f5da014b87df767a7f2c6/AndroidManifest.xml:20:5-44
MERGED from [com.google.android.gms:play-services-places-placereport:15.0.1] /Users/admin/.gradle/caches/transforms-1/files-1.1/play-services-places-placereport-15.0.1.aar/bdc74aad912315a89064408a4cee9d79/AndroidManifest.xml:20:5-44
MERGED from [com.google.android.gms:play-services-places-placereport:15.0.1] /Users/admin/.gradle/caches/transforms-1/files-1.1/play-services-places-placereport-15.0.1.aar/bdc74aad912315a89064408a4cee9d79/AndroidManifest.xml:20:5-44
MERGED from [com.google.firebase:firebase-analytics-impl:15.0.0] /Users/admin/.gradle/caches/transforms-1/files-1.1/firebase-analytics-impl-15.0.0.aar/91fac7b33641e8e8b1750c1fbd5da58e/AndroidManifest.xml:20:5-44
MERGED from [com.google.firebase:firebase-analytics-impl:15.0.0] /Users/admin/.gradle/caches/transforms-1/files-1.1/firebase-analytics-impl-15.0.0.aar/91fac7b33641e8e8b1750c1fbd5da58e/AndroidManifest.xml:20:5-44
MERGED from [com.google.firebase:firebase-iid:15.0.0] /Users/admin/.gradle/caches/transforms-1/files-1.1/firebase-iid-15.0.0.aar/4162cde51bfe546e7d99333d6c9697e0/AndroidManifest.xml:20:5-44
MERGED from [com.google.firebase:firebase-iid:15.0.0] /Users/admin/.gradle/caches/transforms-1/files-1.1/firebase-iid-15.0.0.aar/4162cde51bfe546e7d99333d6c9697e0/AndroidManifest.xml:20:5-44
MERGED from [com.google.firebase:firebase-common:15.0.1] /Users/admin/.gradle/caches/transforms-1/files-1.1/firebase-common-15.0.1.aar/cb7231da4b7f8964d6bdb9ce16f17f07/AndroidManifest.xml:5:5-44
MERGED from [com.google.firebase:firebase-common:15.0.1] /Users/admin/.gradle/caches/transforms-1/files-1.1/firebase-common-15.0.1.aar/cb7231da4b7f8964d6bdb9ce16f17f07/AndroidManifest.xml:5:5-44
MERGED from [com.google.android.gms:play-services-tasks:15.0.1] /Users/admin/.gradle/caches/transforms-1/files-1.1/play-services-tasks-15.0.1.aar/ebe620f09d2b7b41cae3413ec0961eb2/AndroidManifest.xml:5:5-44
MERGED from [com.google.android.gms:play-services-tasks:15.0.1] /Users/admin/.gradle/caches/transforms-1/files-1.1/play-services-tasks-15.0.1.aar/ebe620f09d2b7b41cae3413ec0961eb2/AndroidManifest.xml:5:5-44
MERGED from [com.google.android.gms:play-services-ads-identifier:15.0.1] /Users/admin/.gradle/caches/transforms-1/files-1.1/play-services-ads-identifier-15.0.1.aar/8aac0b2fa55498454537939fa771fbd5/AndroidManifest.xml:20:5-44
MERGED from [com.google.android.gms:play-services-ads-identifier:15.0.1] /Users/admin/.gradle/caches/transforms-1/files-1.1/play-services-ads-identifier-15.0.1.aar/8aac0b2fa55498454537939fa771fbd5/AndroidManifest.xml:20:5-44
MERGED from [com.google.android.gms:play-services-stats:15.0.1] /Users/admin/.gradle/caches/transforms-1/files-1.1/play-services-stats-15.0.1.aar/c3d0581dd96bbfe9e3880a55a3377a50/AndroidManifest.xml:5:5-44
MERGED from [com.google.android.gms:play-services-stats:15.0.1] /Users/admin/.gradle/caches/transforms-1/files-1.1/play-services-stats-15.0.1.aar/c3d0581dd96bbfe9e3880a55a3377a50/AndroidManifest.xml:5:5-44
MERGED from [com.google.android.gms:play-services-basement:15.0.1] /Users/admin/.gradle/caches/transforms-1/files-1.1/play-services-basement-15.0.1.aar/58fd7c363cf8bc1fd7afaafc71cf08a6/AndroidManifest.xml:20:5-44
MERGED from [com.google.android.gms:play-services-basement:15.0.1] /Users/admin/.gradle/caches/transforms-1/files-1.1/play-services-basement-15.0.1.aar/58fd7c363cf8bc1fd7afaafc71cf08a6/AndroidManifest.xml:20:5-44
MERGED from [com.android.support:support-v4:27.1.1] /Users/admin/.gradle/caches/transforms-1/files-1.1/support-v4-27.1.1.aar/2c6b0634b6a7a1004c16ea538c7023e3/AndroidManifest.xml:20:5-44
MERGED from [com.android.support:support-v4:27.1.1] /Users/admin/.gradle/caches/transforms-1/files-1.1/support-v4-27.1.1.aar/2c6b0634b6a7a1004c16ea538c7023e3/AndroidManifest.xml:20:5-44
MERGED from [com.android.support:support-fragment:27.1.1] /Users/admin/.gradle/caches/transforms-1/files-1.1/support-fragment-27.1.1.aar/42767852a06bd7f05605e143f0d13aa8/AndroidManifest.xml:20:5-44
MERGED from [com.android.support:support-fragment:27.1.1] /Users/admin/.gradle/caches/transforms-1/files-1.1/support-fragment-27.1.1.aar/42767852a06bd7f05605e143f0d13aa8/AndroidManifest.xml:20:5-44
MERGED from [com.android.support:support-core-ui:27.1.1] /Users/admin/.gradle/caches/transforms-1/files-1.1/support-core-ui-27.1.1.aar/99aacdea6457500e9c9c16d1c68589ed/AndroidManifest.xml:20:5-44
MERGED from [com.android.support:support-core-ui:27.1.1] /Users/admin/.gradle/caches/transforms-1/files-1.1/support-core-ui-27.1.1.aar/99aacdea6457500e9c9c16d1c68589ed/AndroidManifest.xml:20:5-44
MERGED from [com.android.support:support-core-utils:27.1.1] /Users/admin/.gradle/caches/transforms-1/files-1.1/support-core-utils-27.1.1.aar/d0e0869a954ee7a8855cbffa67b6222d/AndroidManifest.xml:20:5-44
MERGED from [com.android.support:support-core-utils:27.1.1] /Users/admin/.gradle/caches/transforms-1/files-1.1/support-core-utils-27.1.1.aar/d0e0869a954ee7a8855cbffa67b6222d/AndroidManifest.xml:20:5-44
MERGED from [me.leolin:ShortcutBadger:1.1.17] /Users/admin/.gradle/caches/transforms-1/files-1.1/ShortcutBadger-1.1.17.aar/d5a37f23a68a37daa17de5c12a35abdd/AndroidManifest.xml:7:5-9:41
MERGED from [me.leolin:ShortcutBadger:1.1.17] /Users/admin/.gradle/caches/transforms-1/files-1.1/ShortcutBadger-1.1.17.aar/d5a37f23a68a37daa17de5c12a35abdd/AndroidManifest.xml:7:5-9:41
MERGED from [com.android.support:support-media-compat:27.1.1] /Users/admin/.gradle/caches/transforms-1/files-1.1/support-media-compat-27.1.1.aar/accd35bb8a587e8519d45309566ce32b/AndroidManifest.xml:20:5-44
MERGED from [com.android.support:support-media-compat:27.1.1] /Users/admin/.gradle/caches/transforms-1/files-1.1/support-media-compat-27.1.1.aar/accd35bb8a587e8519d45309566ce32b/AndroidManifest.xml:20:5-44
MERGED from [com.android.support:support-compat:27.1.1] /Users/admin/.gradle/caches/transforms-1/files-1.1/support-compat-27.1.1.aar/dc1a0dd5dbaa6d819797ab99f6170e45/AndroidManifest.xml:20:5-44
MERGED from [com.android.support:support-compat:27.1.1] /Users/admin/.gradle/caches/transforms-1/files-1.1/support-compat-27.1.1.aar/dc1a0dd5dbaa6d819797ab99f6170e45/AndroidManifest.xml:20:5-44
MERGED from [com.google.android.gms:play-services-measurement-base:15.0.0] /Users/admin/.gradle/caches/transforms-1/files-1.1/play-services-measurement-base-15.0.0.aar/df4f01f7ca3b8be5da6b460dcd2e7f1a/AndroidManifest.xml:20:5-44
MERGED from [com.google.android.gms:play-services-measurement-base:15.0.0] /Users/admin/.gradle/caches/transforms-1/files-1.1/play-services-measurement-base-15.0.0.aar/df4f01f7ca3b8be5da6b460dcd2e7f1a/AndroidManifest.xml:20:5-44
MERGED from [android.arch.lifecycle:runtime:1.1.0] /Users/admin/.gradle/caches/transforms-1/files-1.1/runtime-1.1.0.aar/36c72dc68d40da7c074d89b814c271c5/AndroidManifest.xml:20:5-44
MERGED from [android.arch.lifecycle:runtime:1.1.0] /Users/admin/.gradle/caches/transforms-1/files-1.1/runtime-1.1.0.aar/36c72dc68d40da7c074d89b814c271c5/AndroidManifest.xml:20:5-44
MERGED from [android.arch.lifecycle:livedata-core:1.1.0] /Users/admin/.gradle/caches/transforms-1/files-1.1/livedata-core-1.1.0.aar/fddd4be3e10555aa191106530ad8694e/AndroidManifest.xml:20:5-44
MERGED from [android.arch.lifecycle:livedata-core:1.1.0] /Users/admin/.gradle/caches/transforms-1/files-1.1/livedata-core-1.1.0.aar/fddd4be3e10555aa191106530ad8694e/AndroidManifest.xml:20:5-44
MERGED from [android.arch.core:runtime:1.1.0] /Users/admin/.gradle/caches/transforms-1/files-1.1/runtime-1.1.0.aar/3a7574a93838665e58e70ecbee5e4c52/AndroidManifest.xml:20:5-44
MERGED from [android.arch.core:runtime:1.1.0] /Users/admin/.gradle/caches/transforms-1/files-1.1/runtime-1.1.0.aar/3a7574a93838665e58e70ecbee5e4c52/AndroidManifest.xml:20:5-44
MERGED from [android.arch.lifecycle:viewmodel:1.1.0] /Users/admin/.gradle/caches/transforms-1/files-1.1/viewmodel-1.1.0.aar/c2aa737aba77b41fc2b037718378d02f/AndroidManifest.xml:20:5-44
MERGED from [android.arch.lifecycle:viewmodel:1.1.0] /Users/admin/.gradle/caches/transforms-1/files-1.1/viewmodel-1.1.0.aar/c2aa737aba77b41fc2b037718378d02f/AndroidManifest.xml:20:5-44
INJECTED from /Volumes/Untitled/client-projects/anjali_proj/Digicon_Projects/track-digi/platforms/android/app/src/main/AndroidManifest.xml:39:5-47
	android:targetSdkVersion
		ADDED from /Volumes/Untitled/client-projects/anjali_proj/Digicon_Projects/track-digi/platforms/android/app/src/main/AndroidManifest.xml:39:15-44
	android:minSdkVersion
		INJECTED from /Volumes/Untitled/client-projects/anjali_proj/Digicon_Projects/track-digi/platforms/android/app/src/main/AndroidManifest.xml
		ADDED from /Volumes/Untitled/client-projects/anjali_proj/Digicon_Projects/track-digi/platforms/android/app/src/main/AndroidManifest.xml:39:5-47
		INJECTED from /Volumes/Untitled/client-projects/anjali_proj/Digicon_Projects/track-digi/platforms/android/app/src/main/AndroidManifest.xml
uses-permission#android.permission.WRITE_EXTERNAL_STORAGE
ADDED from /Volumes/Untitled/client-projects/anjali_proj/Digicon_Projects/track-digi/platforms/android/app/src/main/AndroidManifest.xml:40:5-81
	android:name
		ADDED from /Volumes/Untitled/client-projects/anjali_proj/Digicon_Projects/track-digi/platforms/android/app/src/main/AndroidManifest.xml:40:22-78
uses-permission#android.permission.READ_EXTERNAL_STORAGE
ADDED from /Volumes/Untitled/client-projects/anjali_proj/Digicon_Projects/track-digi/platforms/android/app/src/main/AndroidManifest.xml:41:5-80
	android:name
		ADDED from /Volumes/Untitled/client-projects/anjali_proj/Digicon_Projects/track-digi/platforms/android/app/src/main/AndroidManifest.xml:41:22-77
uses-permission#android.permission.ACCESS_COARSE_LOCATION
ADDED from /Volumes/Untitled/client-projects/anjali_proj/Digicon_Projects/track-digi/platforms/android/app/src/main/AndroidManifest.xml:42:5-81
	android:name
		ADDED from /Volumes/Untitled/client-projects/anjali_proj/Digicon_Projects/track-digi/platforms/android/app/src/main/AndroidManifest.xml:42:22-78
uses-permission#android.permission.ACCESS_FINE_LOCATION
ADDED from /Volumes/Untitled/client-projects/anjali_proj/Digicon_Projects/track-digi/platforms/android/app/src/main/AndroidManifest.xml:43:5-79
	android:name
		ADDED from /Volumes/Untitled/client-projects/anjali_proj/Digicon_Projects/track-digi/platforms/android/app/src/main/AndroidManifest.xml:43:22-76
uses-feature#android.hardware.location.gps
ADDED from /Volumes/Untitled/client-projects/anjali_proj/Digicon_Projects/track-digi/platforms/android/app/src/main/AndroidManifest.xml:44:5-66
	android:name
		ADDED from /Volumes/Untitled/client-projects/anjali_proj/Digicon_Projects/track-digi/platforms/android/app/src/main/AndroidManifest.xml:44:19-63
uses-permission#android.permission.ACCESS_NETWORK_STATE
ADDED from /Volumes/Untitled/client-projects/anjali_proj/Digicon_Projects/track-digi/platforms/android/app/src/main/AndroidManifest.xml:45:5-79
MERGED from [com.google.android.gms:play-services-maps:15.0.1] /Users/admin/.gradle/caches/transforms-1/files-1.1/play-services-maps-15.0.1.aar/5353ca270e448c968e1147f6cafb93ed/AndroidManifest.xml:23:5-79
MERGED from [com.google.android.gms:play-services-maps:15.0.1] /Users/admin/.gradle/caches/transforms-1/files-1.1/play-services-maps-15.0.1.aar/5353ca270e448c968e1147f6cafb93ed/AndroidManifest.xml:23:5-79
MERGED from [com.google.firebase:firebase-analytics-impl:15.0.0] /Users/admin/.gradle/caches/transforms-1/files-1.1/firebase-analytics-impl-15.0.0.aar/91fac7b33641e8e8b1750c1fbd5da58e/AndroidManifest.xml:24:5-79
MERGED from [com.google.firebase:firebase-analytics-impl:15.0.0] /Users/admin/.gradle/caches/transforms-1/files-1.1/firebase-analytics-impl-15.0.0.aar/91fac7b33641e8e8b1750c1fbd5da58e/AndroidManifest.xml:24:5-79
MERGED from [com.google.firebase:firebase-iid:15.0.0] /Users/admin/.gradle/caches/transforms-1/files-1.1/firebase-iid-15.0.0.aar/4162cde51bfe546e7d99333d6c9697e0/AndroidManifest.xml:22:5-79
MERGED from [com.google.firebase:firebase-iid:15.0.0] /Users/admin/.gradle/caches/transforms-1/files-1.1/firebase-iid-15.0.0.aar/4162cde51bfe546e7d99333d6c9697e0/AndroidManifest.xml:22:5-79
	android:name
		ADDED from /Volumes/Untitled/client-projects/anjali_proj/Digicon_Projects/track-digi/platforms/android/app/src/main/AndroidManifest.xml:45:22-76
uses-feature#0x00020000
ADDED from /Volumes/Untitled/client-projects/anjali_proj/Digicon_Projects/track-digi/platforms/android/app/src/main/AndroidManifest.xml:46:5-78
MERGED from [com.google.android.gms:play-services-maps:15.0.1] /Users/admin/.gradle/caches/transforms-1/files-1.1/play-services-maps-15.0.1.aar/5353ca270e448c968e1147f6cafb93ed/AndroidManifest.xml:26:5-28:35
MERGED from [com.google.android.gms:play-services-maps:15.0.1] /Users/admin/.gradle/caches/transforms-1/files-1.1/play-services-maps-15.0.1.aar/5353ca270e448c968e1147f6cafb93ed/AndroidManifest.xml:26:5-28:35
	android:glEsVersion
		ADDED from /Volumes/Untitled/client-projects/anjali_proj/Digicon_Projects/track-digi/platforms/android/app/src/main/AndroidManifest.xml:46:19-51
	android:required
		ADDED from /Volumes/Untitled/client-projects/anjali_proj/Digicon_Projects/track-digi/platforms/android/app/src/main/AndroidManifest.xml:46:52-75
uses-feature#android.hardware.location
ADDED from /Volumes/Untitled/client-projects/anjali_proj/Digicon_Projects/track-digi/platforms/android/app/src/main/AndroidManifest.xml:47:5-62
	android:name
		ADDED from /Volumes/Untitled/client-projects/anjali_proj/Digicon_Projects/track-digi/platforms/android/app/src/main/AndroidManifest.xml:47:19-59
uses-permission#android.permission.ACCESS_WIFI_STATE
ADDED from /Volumes/Untitled/client-projects/anjali_proj/Digicon_Projects/track-digi/platforms/android/app/src/main/AndroidManifest.xml:48:5-76
	android:name
		ADDED from /Volumes/Untitled/client-projects/anjali_proj/Digicon_Projects/track-digi/platforms/android/app/src/main/AndroidManifest.xml:48:22-73
uses-permission#android.permission.SEND_SMS
ADDED from /Volumes/Untitled/client-projects/anjali_proj/Digicon_Projects/track-digi/platforms/android/app/src/main/AndroidManifest.xml:49:5-67
	android:name
		ADDED from /Volumes/Untitled/client-projects/anjali_proj/Digicon_Projects/track-digi/platforms/android/app/src/main/AndroidManifest.xml:49:22-64
uses-permission#android.permission.READ_PHONE_STATE
ADDED from /Volumes/Untitled/client-projects/anjali_proj/Digicon_Projects/track-digi/platforms/android/app/src/main/AndroidManifest.xml:50:5-75
	android:name
		ADDED from /Volumes/Untitled/client-projects/anjali_proj/Digicon_Projects/track-digi/platforms/android/app/src/main/AndroidManifest.xml:50:22-72
uses-feature#android.hardware.telephony
ADDED from /Volumes/Untitled/client-projects/anjali_proj/Digicon_Projects/track-digi/platforms/android/app/src/main/AndroidManifest.xml:51:5-88
	android:required
		ADDED from /Volumes/Untitled/client-projects/anjali_proj/Digicon_Projects/track-digi/platforms/android/app/src/main/AndroidManifest.xml:51:61-85
	android:name
		ADDED from /Volumes/Untitled/client-projects/anjali_proj/Digicon_Projects/track-digi/platforms/android/app/src/main/AndroidManifest.xml:51:19-60
uses-permission#android.permission.WAKE_LOCK
ADDED from /Volumes/Untitled/client-projects/anjali_proj/Digicon_Projects/track-digi/platforms/android/app/src/main/AndroidManifest.xml:52:5-68
MERGED from [com.google.firebase:firebase-analytics-impl:15.0.0] /Users/admin/.gradle/caches/transforms-1/files-1.1/firebase-analytics-impl-15.0.0.aar/91fac7b33641e8e8b1750c1fbd5da58e/AndroidManifest.xml:25:5-68
MERGED from [com.google.firebase:firebase-analytics-impl:15.0.0] /Users/admin/.gradle/caches/transforms-1/files-1.1/firebase-analytics-impl-15.0.0.aar/91fac7b33641e8e8b1750c1fbd5da58e/AndroidManifest.xml:25:5-68
MERGED from [com.google.firebase:firebase-iid:15.0.0] /Users/admin/.gradle/caches/transforms-1/files-1.1/firebase-iid-15.0.0.aar/4162cde51bfe546e7d99333d6c9697e0/AndroidManifest.xml:24:5-68
MERGED from [com.google.firebase:firebase-iid:15.0.0] /Users/admin/.gradle/caches/transforms-1/files-1.1/firebase-iid-15.0.0.aar/4162cde51bfe546e7d99333d6c9697e0/AndroidManifest.xml:24:5-68
	android:name
		ADDED from /Volumes/Untitled/client-projects/anjali_proj/Digicon_Projects/track-digi/platforms/android/app/src/main/AndroidManifest.xml:52:22-65
uses-permission#android.permission.VIBRATE
ADDED from /Volumes/Untitled/client-projects/anjali_proj/Digicon_Projects/track-digi/platforms/android/app/src/main/AndroidManifest.xml:53:5-66
	android:name
		ADDED from /Volumes/Untitled/client-projects/anjali_proj/Digicon_Projects/track-digi/platforms/android/app/src/main/AndroidManifest.xml:53:22-63
meta-data#android.support.FILE_PROVIDER_PATHS
ADDED from /Volumes/Untitled/client-projects/anjali_proj/Digicon_Projects/track-digi/platforms/android/app/src/main/AndroidManifest.xml:13:13-123
	android:resource
		ADDED from /Volumes/Untitled/client-projects/anjali_proj/Digicon_Projects/track-digi/platforms/android/app/src/main/AndroidManifest.xml:13:75-120
	android:name
		ADDED from /Volumes/Untitled/client-projects/anjali_proj/Digicon_Projects/track-digi/platforms/android/app/src/main/AndroidManifest.xml:13:24-74
service#com.google.firebase.messaging.FirebaseMessagingService
ADDED from [com.google.firebase:firebase-messaging:15.0.0] /Users/admin/.gradle/caches/transforms-1/files-1.1/firebase-messaging-15.0.0.aar/ca6327da60041304c05f0244e981f58a/AndroidManifest.xml:28:9-34:19
	android:exported
		ADDED from [com.google.firebase:firebase-messaging:15.0.0] /Users/admin/.gradle/caches/transforms-1/files-1.1/firebase-messaging-15.0.0.aar/ca6327da60041304c05f0244e981f58a/AndroidManifest.xml:30:13-36
	android:name
		ADDED from [com.google.firebase:firebase-messaging:15.0.0] /Users/admin/.gradle/caches/transforms-1/files-1.1/firebase-messaging-15.0.0.aar/ca6327da60041304c05f0244e981f58a/AndroidManifest.xml:29:13-82
activity#com.google.android.gms.common.api.GoogleApiActivity
ADDED from [com.google.android.gms:play-services-base:15.0.1] /Users/admin/.gradle/caches/transforms-1/files-1.1/play-services-base-15.0.1.aar/15a7e0364b4f5da014b87df767a7f2c6/AndroidManifest.xml:23:9-26:75
	android:exported
		ADDED from [com.google.android.gms:play-services-base:15.0.1] /Users/admin/.gradle/caches/transforms-1/files-1.1/play-services-base-15.0.1.aar/15a7e0364b4f5da014b87df767a7f2c6/AndroidManifest.xml:25:13-37
	android:theme
		ADDED from [com.google.android.gms:play-services-base:15.0.1] /Users/admin/.gradle/caches/transforms-1/files-1.1/play-services-base-15.0.1.aar/15a7e0364b4f5da014b87df767a7f2c6/AndroidManifest.xml:26:13-72
	android:name
		ADDED from [com.google.android.gms:play-services-base:15.0.1] /Users/admin/.gradle/caches/transforms-1/files-1.1/play-services-base-15.0.1.aar/15a7e0364b4f5da014b87df767a7f2c6/AndroidManifest.xml:24:13-79
uses-permission#com.google.android.finsky.permission.BIND_GET_INSTALL_REFERRER_SERVICE
ADDED from [com.google.firebase:firebase-analytics-impl:15.0.0] /Users/admin/.gradle/caches/transforms-1/files-1.1/firebase-analytics-impl-15.0.0.aar/91fac7b33641e8e8b1750c1fbd5da58e/AndroidManifest.xml:26:5-110
	android:name
		ADDED from [com.google.firebase:firebase-analytics-impl:15.0.0] /Users/admin/.gradle/caches/transforms-1/files-1.1/firebase-analytics-impl-15.0.0.aar/91fac7b33641e8e8b1750c1fbd5da58e/AndroidManifest.xml:26:22-107
receiver#com.google.android.gms.measurement.AppMeasurementReceiver
ADDED from [com.google.firebase:firebase-analytics-impl:15.0.0] /Users/admin/.gradle/caches/transforms-1/files-1.1/firebase-analytics-impl-15.0.0.aar/91fac7b33641e8e8b1750c1fbd5da58e/AndroidManifest.xml:29:9-33:20
	android:enabled
		ADDED from [com.google.firebase:firebase-analytics-impl:15.0.0] /Users/admin/.gradle/caches/transforms-1/files-1.1/firebase-analytics-impl-15.0.0.aar/91fac7b33641e8e8b1750c1fbd5da58e/AndroidManifest.xml:31:13-35
	android:exported
		ADDED from [com.google.firebase:firebase-analytics-impl:15.0.0] /Users/admin/.gradle/caches/transforms-1/files-1.1/firebase-analytics-impl-15.0.0.aar/91fac7b33641e8e8b1750c1fbd5da58e/AndroidManifest.xml:32:13-37
	android:name
		ADDED from [com.google.firebase:firebase-analytics-impl:15.0.0] /Users/admin/.gradle/caches/transforms-1/files-1.1/firebase-analytics-impl-15.0.0.aar/91fac7b33641e8e8b1750c1fbd5da58e/AndroidManifest.xml:30:13-85
service#com.google.android.gms.measurement.AppMeasurementService
ADDED from [com.google.firebase:firebase-analytics-impl:15.0.0] /Users/admin/.gradle/caches/transforms-1/files-1.1/firebase-analytics-impl-15.0.0.aar/91fac7b33641e8e8b1750c1fbd5da58e/AndroidManifest.xml:35:9-38:40
	android:enabled
		ADDED from [com.google.firebase:firebase-analytics-impl:15.0.0] /Users/admin/.gradle/caches/transforms-1/files-1.1/firebase-analytics-impl-15.0.0.aar/91fac7b33641e8e8b1750c1fbd5da58e/AndroidManifest.xml:37:13-35
	android:exported
		ADDED from [com.google.firebase:firebase-analytics-impl:15.0.0] /Users/admin/.gradle/caches/transforms-1/files-1.1/firebase-analytics-impl-15.0.0.aar/91fac7b33641e8e8b1750c1fbd5da58e/AndroidManifest.xml:38:13-37
	android:name
		ADDED from [com.google.firebase:firebase-analytics-impl:15.0.0] /Users/admin/.gradle/caches/transforms-1/files-1.1/firebase-analytics-impl-15.0.0.aar/91fac7b33641e8e8b1750c1fbd5da58e/AndroidManifest.xml:36:13-84
uses-permission#com.google.android.c2dm.permission.RECEIVE
ADDED from [com.google.firebase:firebase-iid:15.0.0] /Users/admin/.gradle/caches/transforms-1/files-1.1/firebase-iid-15.0.0.aar/4162cde51bfe546e7d99333d6c9697e0/AndroidManifest.xml:26:5-82
	android:name
		ADDED from [com.google.firebase:firebase-iid:15.0.0] /Users/admin/.gradle/caches/transforms-1/files-1.1/firebase-iid-15.0.0.aar/4162cde51bfe546e7d99333d6c9697e0/AndroidManifest.xml:26:22-79
permission#${applicationId}.permission.C2D_MESSAGE
ADDED from [com.google.firebase:firebase-iid:15.0.0] /Users/admin/.gradle/caches/transforms-1/files-1.1/firebase-iid-15.0.0.aar/4162cde51bfe546e7d99333d6c9697e0/AndroidManifest.xml:28:5-30:47
	android:protectionLevel
		ADDED from [com.google.firebase:firebase-iid:15.0.0] /Users/admin/.gradle/caches/transforms-1/files-1.1/firebase-iid-15.0.0.aar/4162cde51bfe546e7d99333d6c9697e0/AndroidManifest.xml:30:9-44
	android:name
		ADDED from [com.google.firebase:firebase-iid:15.0.0] /Users/admin/.gradle/caches/transforms-1/files-1.1/firebase-iid-15.0.0.aar/4162cde51bfe546e7d99333d6c9697e0/AndroidManifest.xml:29:9-63
permission#digicontTrack.ionic.starter.permission.C2D_MESSAGE
ADDED from [com.google.firebase:firebase-iid:15.0.0] /Users/admin/.gradle/caches/transforms-1/files-1.1/firebase-iid-15.0.0.aar/4162cde51bfe546e7d99333d6c9697e0/AndroidManifest.xml:28:5-30:47
	android:protectionLevel
		ADDED from [com.google.firebase:firebase-iid:15.0.0] /Users/admin/.gradle/caches/transforms-1/files-1.1/firebase-iid-15.0.0.aar/4162cde51bfe546e7d99333d6c9697e0/AndroidManifest.xml:30:9-44
	android:name
		ADDED from [com.google.firebase:firebase-iid:15.0.0] /Users/admin/.gradle/caches/transforms-1/files-1.1/firebase-iid-15.0.0.aar/4162cde51bfe546e7d99333d6c9697e0/AndroidManifest.xml:29:9-63
uses-permission#${applicationId}.permission.C2D_MESSAGE
ADDED from [com.google.firebase:firebase-iid:15.0.0] /Users/admin/.gradle/caches/transforms-1/files-1.1/firebase-iid-15.0.0.aar/4162cde51bfe546e7d99333d6c9697e0/AndroidManifest.xml:32:5-79
	android:name
		ADDED from [com.google.firebase:firebase-iid:15.0.0] /Users/admin/.gradle/caches/transforms-1/files-1.1/firebase-iid-15.0.0.aar/4162cde51bfe546e7d99333d6c9697e0/AndroidManifest.xml:32:22-76
uses-permission#digicontTrack.ionic.starter.permission.C2D_MESSAGE
ADDED from [com.google.firebase:firebase-iid:15.0.0] /Users/admin/.gradle/caches/transforms-1/files-1.1/firebase-iid-15.0.0.aar/4162cde51bfe546e7d99333d6c9697e0/AndroidManifest.xml:32:5-79
	android:name
		ADDED from [com.google.firebase:firebase-iid:15.0.0] /Users/admin/.gradle/caches/transforms-1/files-1.1/firebase-iid-15.0.0.aar/4162cde51bfe546e7d99333d6c9697e0/AndroidManifest.xml:32:22-76
receiver#com.google.firebase.iid.FirebaseInstanceIdReceiver
ADDED from [com.google.firebase:firebase-iid:15.0.0] /Users/admin/.gradle/caches/transforms-1/files-1.1/firebase-iid-15.0.0.aar/4162cde51bfe546e7d99333d6c9697e0/AndroidManifest.xml:35:9-44:20
	android:exported
		ADDED from [com.google.firebase:firebase-iid:15.0.0] /Users/admin/.gradle/caches/transforms-1/files-1.1/firebase-iid-15.0.0.aar/4162cde51bfe546e7d99333d6c9697e0/AndroidManifest.xml:37:13-36
	android:permission
		ADDED from [com.google.firebase:firebase-iid:15.0.0] /Users/admin/.gradle/caches/transforms-1/files-1.1/firebase-iid-15.0.0.aar/4162cde51bfe546e7d99333d6c9697e0/AndroidManifest.xml:38:13-73
	android:name
		ADDED from [com.google.firebase:firebase-iid:15.0.0] /Users/admin/.gradle/caches/transforms-1/files-1.1/firebase-iid-15.0.0.aar/4162cde51bfe546e7d99333d6c9697e0/AndroidManifest.xml:36:13-78
intent-filter#action:name:com.google.android.c2dm.intent.RECEIVE+category:name:${applicationId}
ADDED from [com.google.firebase:firebase-iid:15.0.0] /Users/admin/.gradle/caches/transforms-1/files-1.1/firebase-iid-15.0.0.aar/4162cde51bfe546e7d99333d6c9697e0/AndroidManifest.xml:39:13-43:29
intent-filter#action:name:com.google.android.c2dm.intent.RECEIVE+category:name:digicontTrack.ionic.starter
ADDED from [com.google.firebase:firebase-iid:15.0.0] /Users/admin/.gradle/caches/transforms-1/files-1.1/firebase-iid-15.0.0.aar/4162cde51bfe546e7d99333d6c9697e0/AndroidManifest.xml:39:13-43:29
action#com.google.android.c2dm.intent.RECEIVE
ADDED from [com.google.firebase:firebase-iid:15.0.0] /Users/admin/.gradle/caches/transforms-1/files-1.1/firebase-iid-15.0.0.aar/4162cde51bfe546e7d99333d6c9697e0/AndroidManifest.xml:40:17-81
	android:name
		ADDED from [com.google.firebase:firebase-iid:15.0.0] /Users/admin/.gradle/caches/transforms-1/files-1.1/firebase-iid-15.0.0.aar/4162cde51bfe546e7d99333d6c9697e0/AndroidManifest.xml:40:25-78
category#${applicationId}
ADDED from [com.google.firebase:firebase-iid:15.0.0] /Users/admin/.gradle/caches/transforms-1/files-1.1/firebase-iid-15.0.0.aar/4162cde51bfe546e7d99333d6c9697e0/AndroidManifest.xml:42:17-61
	android:name
		ADDED from [com.google.firebase:firebase-iid:15.0.0] /Users/admin/.gradle/caches/transforms-1/files-1.1/firebase-iid-15.0.0.aar/4162cde51bfe546e7d99333d6c9697e0/AndroidManifest.xml:42:27-58
category#digicontTrack.ionic.starter
ADDED from [com.google.firebase:firebase-iid:15.0.0] /Users/admin/.gradle/caches/transforms-1/files-1.1/firebase-iid-15.0.0.aar/4162cde51bfe546e7d99333d6c9697e0/AndroidManifest.xml:42:17-61
	android:name
		ADDED from [com.google.firebase:firebase-iid:15.0.0] /Users/admin/.gradle/caches/transforms-1/files-1.1/firebase-iid-15.0.0.aar/4162cde51bfe546e7d99333d6c9697e0/AndroidManifest.xml:42:27-58
service#com.google.firebase.iid.FirebaseInstanceIdService
ADDED from [com.google.firebase:firebase-iid:15.0.0] /Users/admin/.gradle/caches/transforms-1/files-1.1/firebase-iid-15.0.0.aar/4162cde51bfe546e7d99333d6c9697e0/AndroidManifest.xml:50:9-56:19
	android:exported
		ADDED from [com.google.firebase:firebase-iid:15.0.0] /Users/admin/.gradle/caches/transforms-1/files-1.1/firebase-iid-15.0.0.aar/4162cde51bfe546e7d99333d6c9697e0/AndroidManifest.xml:52:13-36
	android:name
		ADDED from [com.google.firebase:firebase-iid:15.0.0] /Users/admin/.gradle/caches/transforms-1/files-1.1/firebase-iid-15.0.0.aar/4162cde51bfe546e7d99333d6c9697e0/AndroidManifest.xml:51:13-77
provider#com.google.firebase.provider.FirebaseInitProvider
ADDED from [com.google.firebase:firebase-common:15.0.1] /Users/admin/.gradle/caches/transforms-1/files-1.1/firebase-common-15.0.1.aar/cb7231da4b7f8964d6bdb9ce16f17f07/AndroidManifest.xml:8:9-12:39
	android:authorities
		ADDED from [com.google.firebase:firebase-common:15.0.1] /Users/admin/.gradle/caches/transforms-1/files-1.1/firebase-common-15.0.1.aar/cb7231da4b7f8964d6bdb9ce16f17f07/AndroidManifest.xml:10:13-72
	android:exported
		ADDED from [com.google.firebase:firebase-common:15.0.1] /Users/admin/.gradle/caches/transforms-1/files-1.1/firebase-common-15.0.1.aar/cb7231da4b7f8964d6bdb9ce16f17f07/AndroidManifest.xml:11:13-37
	android:initOrder
		ADDED from [com.google.firebase:firebase-common:15.0.1] /Users/admin/.gradle/caches/transforms-1/files-1.1/firebase-common-15.0.1.aar/cb7231da4b7f8964d6bdb9ce16f17f07/AndroidManifest.xml:12:13-36
	android:name
		ADDED from [com.google.firebase:firebase-common:15.0.1] /Users/admin/.gradle/caches/transforms-1/files-1.1/firebase-common-15.0.1.aar/cb7231da4b7f8964d6bdb9ce16f17f07/AndroidManifest.xml:9:13-77
uses-permission#com.sec.android.provider.badge.permission.READ
ADDED from [me.leolin:ShortcutBadger:1.1.17] /Users/admin/.gradle/caches/transforms-1/files-1.1/ShortcutBadger-1.1.17.aar/d5a37f23a68a37daa17de5c12a35abdd/AndroidManifest.xml:19:5-86
	android:name
		ADDED from [me.leolin:ShortcutBadger:1.1.17] /Users/admin/.gradle/caches/transforms-1/files-1.1/ShortcutBadger-1.1.17.aar/d5a37f23a68a37daa17de5c12a35abdd/AndroidManifest.xml:19:22-83
uses-permission#com.sec.android.provider.badge.permission.WRITE
ADDED from [me.leolin:ShortcutBadger:1.1.17] /Users/admin/.gradle/caches/transforms-1/files-1.1/ShortcutBadger-1.1.17.aar/d5a37f23a68a37daa17de5c12a35abdd/AndroidManifest.xml:20:5-87
	android:name
		ADDED from [me.leolin:ShortcutBadger:1.1.17] /Users/admin/.gradle/caches/transforms-1/files-1.1/ShortcutBadger-1.1.17.aar/d5a37f23a68a37daa17de5c12a35abdd/AndroidManifest.xml:20:22-84
uses-permission#com.htc.launcher.permission.READ_SETTINGS
ADDED from [me.leolin:ShortcutBadger:1.1.17] /Users/admin/.gradle/caches/transforms-1/files-1.1/ShortcutBadger-1.1.17.aar/d5a37f23a68a37daa17de5c12a35abdd/AndroidManifest.xml:23:5-81
	android:name
		ADDED from [me.leolin:ShortcutBadger:1.1.17] /Users/admin/.gradle/caches/transforms-1/files-1.1/ShortcutBadger-1.1.17.aar/d5a37f23a68a37daa17de5c12a35abdd/AndroidManifest.xml:23:22-78
uses-permission#com.htc.launcher.permission.UPDATE_SHORTCUT
ADDED from [me.leolin:ShortcutBadger:1.1.17] /Users/admin/.gradle/caches/transforms-1/files-1.1/ShortcutBadger-1.1.17.aar/d5a37f23a68a37daa17de5c12a35abdd/AndroidManifest.xml:24:5-83
	android:name
		ADDED from [me.leolin:ShortcutBadger:1.1.17] /Users/admin/.gradle/caches/transforms-1/files-1.1/ShortcutBadger-1.1.17.aar/d5a37f23a68a37daa17de5c12a35abdd/AndroidManifest.xml:24:22-80
uses-permission#com.sonyericsson.home.permission.BROADCAST_BADGE
ADDED from [me.leolin:ShortcutBadger:1.1.17] /Users/admin/.gradle/caches/transforms-1/files-1.1/ShortcutBadger-1.1.17.aar/d5a37f23a68a37daa17de5c12a35abdd/AndroidManifest.xml:27:5-88
	android:name
		ADDED from [me.leolin:ShortcutBadger:1.1.17] /Users/admin/.gradle/caches/transforms-1/files-1.1/ShortcutBadger-1.1.17.aar/d5a37f23a68a37daa17de5c12a35abdd/AndroidManifest.xml:27:22-85
uses-permission#com.sonymobile.home.permission.PROVIDER_INSERT_BADGE
ADDED from [me.leolin:ShortcutBadger:1.1.17] /Users/admin/.gradle/caches/transforms-1/files-1.1/ShortcutBadger-1.1.17.aar/d5a37f23a68a37daa17de5c12a35abdd/AndroidManifest.xml:28:5-92
	android:name
		ADDED from [me.leolin:ShortcutBadger:1.1.17] /Users/admin/.gradle/caches/transforms-1/files-1.1/ShortcutBadger-1.1.17.aar/d5a37f23a68a37daa17de5c12a35abdd/AndroidManifest.xml:28:22-89
uses-permission#com.anddoes.launcher.permission.UPDATE_COUNT
ADDED from [me.leolin:ShortcutBadger:1.1.17] /Users/admin/.gradle/caches/transforms-1/files-1.1/ShortcutBadger-1.1.17.aar/d5a37f23a68a37daa17de5c12a35abdd/AndroidManifest.xml:31:5-84
	android:name
		ADDED from [me.leolin:ShortcutBadger:1.1.17] /Users/admin/.gradle/caches/transforms-1/files-1.1/ShortcutBadger-1.1.17.aar/d5a37f23a68a37daa17de5c12a35abdd/AndroidManifest.xml:31:22-81
uses-permission#com.majeur.launcher.permission.UPDATE_BADGE
ADDED from [me.leolin:ShortcutBadger:1.1.17] /Users/admin/.gradle/caches/transforms-1/files-1.1/ShortcutBadger-1.1.17.aar/d5a37f23a68a37daa17de5c12a35abdd/AndroidManifest.xml:34:5-83
	android:name
		ADDED from [me.leolin:ShortcutBadger:1.1.17] /Users/admin/.gradle/caches/transforms-1/files-1.1/ShortcutBadger-1.1.17.aar/d5a37f23a68a37daa17de5c12a35abdd/AndroidManifest.xml:34:22-80
uses-permission#com.huawei.android.launcher.permission.CHANGE_BADGE
ADDED from [me.leolin:ShortcutBadger:1.1.17] /Users/admin/.gradle/caches/transforms-1/files-1.1/ShortcutBadger-1.1.17.aar/d5a37f23a68a37daa17de5c12a35abdd/AndroidManifest.xml:37:5-91
	android:name
		ADDED from [me.leolin:ShortcutBadger:1.1.17] /Users/admin/.gradle/caches/transforms-1/files-1.1/ShortcutBadger-1.1.17.aar/d5a37f23a68a37daa17de5c12a35abdd/AndroidManifest.xml:37:22-88
uses-permission#com.huawei.android.launcher.permission.READ_SETTINGS
ADDED from [me.leolin:ShortcutBadger:1.1.17] /Users/admin/.gradle/caches/transforms-1/files-1.1/ShortcutBadger-1.1.17.aar/d5a37f23a68a37daa17de5c12a35abdd/AndroidManifest.xml:38:5-92
	android:name
		ADDED from [me.leolin:ShortcutBadger:1.1.17] /Users/admin/.gradle/caches/transforms-1/files-1.1/ShortcutBadger-1.1.17.aar/d5a37f23a68a37daa17de5c12a35abdd/AndroidManifest.xml:38:22-89
uses-permission#com.huawei.android.launcher.permission.WRITE_SETTINGS
ADDED from [me.leolin:ShortcutBadger:1.1.17] /Users/admin/.gradle/caches/transforms-1/files-1.1/ShortcutBadger-1.1.17.aar/d5a37f23a68a37daa17de5c12a35abdd/AndroidManifest.xml:39:5-93
	android:name
		ADDED from [me.leolin:ShortcutBadger:1.1.17] /Users/admin/.gradle/caches/transforms-1/files-1.1/ShortcutBadger-1.1.17.aar/d5a37f23a68a37daa17de5c12a35abdd/AndroidManifest.xml:39:22-90
uses-permission#android.permission.READ_APP_BADGE
ADDED from [me.leolin:ShortcutBadger:1.1.17] /Users/admin/.gradle/caches/transforms-1/files-1.1/ShortcutBadger-1.1.17.aar/d5a37f23a68a37daa17de5c12a35abdd/AndroidManifest.xml:42:5-73
	android:name
		ADDED from [me.leolin:ShortcutBadger:1.1.17] /Users/admin/.gradle/caches/transforms-1/files-1.1/ShortcutBadger-1.1.17.aar/d5a37f23a68a37daa17de5c12a35abdd/AndroidManifest.xml:42:22-70
uses-permission#com.oppo.launcher.permission.READ_SETTINGS
ADDED from [me.leolin:ShortcutBadger:1.1.17] /Users/admin/.gradle/caches/transforms-1/files-1.1/ShortcutBadger-1.1.17.aar/d5a37f23a68a37daa17de5c12a35abdd/AndroidManifest.xml:45:5-82
	android:name
		ADDED from [me.leolin:ShortcutBadger:1.1.17] /Users/admin/.gradle/caches/transforms-1/files-1.1/ShortcutBadger-1.1.17.aar/d5a37f23a68a37daa17de5c12a35abdd/AndroidManifest.xml:45:22-79
uses-permission#com.oppo.launcher.permission.WRITE_SETTINGS
ADDED from [me.leolin:ShortcutBadger:1.1.17] /Users/admin/.gradle/caches/transforms-1/files-1.1/ShortcutBadger-1.1.17.aar/d5a37f23a68a37daa17de5c12a35abdd/AndroidManifest.xml:46:5-83
	android:name
		ADDED from [me.leolin:ShortcutBadger:1.1.17] /Users/admin/.gradle/caches/transforms-1/files-1.1/ShortcutBadger-1.1.17.aar/d5a37f23a68a37daa17de5c12a35abdd/AndroidManifest.xml:46:22-80
uses-permission#me.everything.badger.permission.BADGE_COUNT_READ
ADDED from [me.leolin:ShortcutBadger:1.1.17] /Users/admin/.gradle/caches/transforms-1/files-1.1/ShortcutBadger-1.1.17.aar/d5a37f23a68a37daa17de5c12a35abdd/AndroidManifest.xml:49:5-88
	android:name
		ADDED from [me.leolin:ShortcutBadger:1.1.17] /Users/admin/.gradle/caches/transforms-1/files-1.1/ShortcutBadger-1.1.17.aar/d5a37f23a68a37daa17de5c12a35abdd/AndroidManifest.xml:49:22-85
uses-permission#me.everything.badger.permission.BADGE_COUNT_WRITE
ADDED from [me.leolin:ShortcutBadger:1.1.17] /Users/admin/.gradle/caches/transforms-1/files-1.1/ShortcutBadger-1.1.17.aar/d5a37f23a68a37daa17de5c12a35abdd/AndroidManifest.xml:50:5-89
	android:name
		ADDED from [me.leolin:ShortcutBadger:1.1.17] /Users/admin/.gradle/caches/transforms-1/files-1.1/ShortcutBadger-1.1.17.aar/d5a37f23a68a37daa17de5c12a35abdd/AndroidManifest.xml:50:22-86
